[2022-09-11T12:49:48.385+0000] {taskinstance.py:1171} INFO - Dependencies all met for <TaskInstance: ETL.ETL manual__2022-09-11T12:49:45.980355+00:00 [queued]>
[2022-09-11T12:49:48.395+0000] {taskinstance.py:1171} INFO - Dependencies all met for <TaskInstance: ETL.ETL manual__2022-09-11T12:49:45.980355+00:00 [queued]>
[2022-09-11T12:49:48.396+0000] {taskinstance.py:1368} INFO - 
--------------------------------------------------------------------------------
[2022-09-11T12:49:48.396+0000] {taskinstance.py:1369} INFO - Starting attempt 1 of 1
[2022-09-11T12:49:48.396+0000] {taskinstance.py:1370} INFO - 
--------------------------------------------------------------------------------
[2022-09-11T12:49:48.413+0000] {taskinstance.py:1389} INFO - Executing <Task(PythonOperator): ETL> on 2022-09-11 12:49:45.980355+00:00
[2022-09-11T12:49:48.418+0000] {standard_task_runner.py:52} INFO - Started process 6657 to run task
[2022-09-11T12:49:48.421+0000] {standard_task_runner.py:79} INFO - Running: ['***', 'tasks', 'run', 'ETL', 'ETL', 'manual__2022-09-11T12:49:45.980355+00:00', '--job-id', '80', '--raw', '--subdir', 'DAGS_FOLDER/etl.py', '--cfg-path', '/tmp/tmpfae2w5_s', '--error-file', '/tmp/tmp9yv5mr4i']
[2022-09-11T12:49:48.423+0000] {standard_task_runner.py:80} INFO - Job 80: Subtask ETL
[2022-09-11T12:49:48.496+0000] {task_command.py:371} INFO - Running <TaskInstance: ETL.ETL manual__2022-09-11T12:49:45.980355+00:00 [running]> on host 9e79258d8c9a
[2022-09-11T12:49:48.579+0000] {taskinstance.py:1583} INFO - Exporting the following env vars:
AIRFLOW_CTX_DAG_OWNER=***
AIRFLOW_CTX_DAG_ID=ETL
AIRFLOW_CTX_TASK_ID=ETL
AIRFLOW_CTX_EXECUTION_DATE=2022-09-11T12:49:45.980355+00:00
AIRFLOW_CTX_TRY_NUMBER=1
AIRFLOW_CTX_DAG_RUN_ID=manual__2022-09-11T12:49:45.980355+00:00
[2022-09-11T12:49:48.589+0000] {taskinstance.py:1902} ERROR - Task failed with exception
Traceback (most recent call last):
  File "/home/airflow/.local/lib/python3.7/site-packages/airflow/operators/python.py", line 171, in execute
    return_value = self.execute_callable()
  File "/home/airflow/.local/lib/python3.7/site-packages/airflow/operators/python.py", line 189, in execute_callable
    return self.python_callable(*self.op_args, **self.op_kwargs)
  File "/opt/airflow/dags/etl.py", line 38, in my_func
    df=json_to_df(urlPath=urlPath)
  File "/opt/airflow/dags/etl.py", line 31, in json_to_df
    r= requests.get('urlPath')
  File "/home/airflow/.local/lib/python3.7/site-packages/requests/api.py", line 73, in get
    return request("get", url, params=params, **kwargs)
  File "/home/airflow/.local/lib/python3.7/site-packages/requests/api.py", line 59, in request
    return session.request(method=method, url=url, **kwargs)
  File "/home/airflow/.local/lib/python3.7/site-packages/requests/sessions.py", line 573, in request
    prep = self.prepare_request(req)
  File "/home/airflow/.local/lib/python3.7/site-packages/requests/sessions.py", line 496, in prepare_request
    hooks=merge_hooks(request.hooks, self.hooks),
  File "/home/airflow/.local/lib/python3.7/site-packages/requests/models.py", line 368, in prepare
    self.prepare_url(url, params)
  File "/home/airflow/.local/lib/python3.7/site-packages/requests/models.py", line 440, in prepare_url
    f"Invalid URL {url!r}: No scheme supplied. "
requests.exceptions.MissingSchema: Invalid URL 'urlPath': No scheme supplied. Perhaps you meant http://urlPath?
[2022-09-11T12:49:48.602+0000] {taskinstance.py:1412} INFO - Marking task as FAILED. dag_id=ETL, task_id=ETL, execution_date=20220911T124945, start_date=20220911T124948, end_date=20220911T124948
[2022-09-11T12:49:48.613+0000] {standard_task_runner.py:97} ERROR - Failed to execute job 80 for task ETL (Invalid URL 'urlPath': No scheme supplied. Perhaps you meant http://urlPath?; 6657)
[2022-09-11T12:49:48.632+0000] {local_task_job.py:156} INFO - Task exited with return code 1
[2022-09-11T12:49:48.679+0000] {local_task_job.py:279} INFO - 0 downstream tasks scheduled from follow-on schedule check
