[2022-09-13T10:59:01.916+0000] {taskinstance.py:1171} INFO - Dependencies all met for <TaskInstance: Exercise4.start manual__2022-09-13T10:59:00.161665+00:00 [queued]>
[2022-09-13T10:59:01.925+0000] {taskinstance.py:1171} INFO - Dependencies all met for <TaskInstance: Exercise4.start manual__2022-09-13T10:59:00.161665+00:00 [queued]>
[2022-09-13T10:59:01.925+0000] {taskinstance.py:1368} INFO - 
--------------------------------------------------------------------------------
[2022-09-13T10:59:01.925+0000] {taskinstance.py:1369} INFO - Starting attempt 1 of 1
[2022-09-13T10:59:01.925+0000] {taskinstance.py:1370} INFO - 
--------------------------------------------------------------------------------
[2022-09-13T10:59:01.938+0000] {taskinstance.py:1389} INFO - Executing <Task(BashOperator): start> on 2022-09-13 10:59:00.161665+00:00
[2022-09-13T10:59:01.942+0000] {standard_task_runner.py:52} INFO - Started process 8564 to run task
[2022-09-13T10:59:01.946+0000] {standard_task_runner.py:79} INFO - Running: ['***', 'tasks', 'run', 'Exercise4', 'start', 'manual__2022-09-13T10:59:00.161665+00:00', '--job-id', '116', '--raw', '--subdir', 'DAGS_FOLDER/exercise4.py', '--cfg-path', '/tmp/tmpmi8ptgwf', '--error-file', '/tmp/tmpxzccq7p3']
[2022-09-13T10:59:01.946+0000] {standard_task_runner.py:80} INFO - Job 116: Subtask start
[2022-09-13T10:59:02.012+0000] {task_command.py:371} INFO - Running <TaskInstance: Exercise4.start manual__2022-09-13T10:59:00.161665+00:00 [running]> on host cafb6e659d50
[2022-09-13T10:59:02.126+0000] {taskinstance.py:1583} INFO - Exporting the following env vars:
AIRFLOW_CTX_DAG_OWNER=***
AIRFLOW_CTX_DAG_ID=Exercise4
AIRFLOW_CTX_TASK_ID=start
AIRFLOW_CTX_EXECUTION_DATE=2022-09-13T10:59:00.161665+00:00
AIRFLOW_CTX_TRY_NUMBER=1
AIRFLOW_CTX_DAG_RUN_ID=manual__2022-09-13T10:59:00.161665+00:00
[2022-09-13T10:59:02.127+0000] {subprocess.py:62} INFO - Tmp dir root location: 
 /tmp
[2022-09-13T10:59:02.128+0000] {subprocess.py:74} INFO - Running command: ['/bin/bash', '-c', 'date']
[2022-09-13T10:59:02.139+0000] {subprocess.py:85} INFO - Output:
[2022-09-13T10:59:02.144+0000] {subprocess.py:92} INFO - Tue Sep 13 10:59:02 UTC 2022
[2022-09-13T10:59:02.145+0000] {subprocess.py:96} INFO - Command exited with return code 0
[2022-09-13T10:59:02.186+0000] {taskinstance.py:1412} INFO - Marking task as SUCCESS. dag_id=Exercise4, task_id=start, execution_date=20220913T105900, start_date=20220913T105901, end_date=20220913T105902
[2022-09-13T10:59:02.237+0000] {local_task_job.py:156} INFO - Task exited with return code 0
[2022-09-13T10:59:02.288+0000] {local_task_job.py:279} INFO - 1 downstream tasks scheduled from follow-on schedule check
