[2022-09-13T01:12:06.135+0000] {taskinstance.py:1171} INFO - Dependencies all met for <TaskInstance: Exercise3.start manual__2022-09-13T01:12:04.084973+00:00 [queued]>
[2022-09-13T01:12:06.150+0000] {taskinstance.py:1171} INFO - Dependencies all met for <TaskInstance: Exercise3.start manual__2022-09-13T01:12:04.084973+00:00 [queued]>
[2022-09-13T01:12:06.150+0000] {taskinstance.py:1368} INFO - 
--------------------------------------------------------------------------------
[2022-09-13T01:12:06.150+0000] {taskinstance.py:1369} INFO - Starting attempt 1 of 1
[2022-09-13T01:12:06.151+0000] {taskinstance.py:1370} INFO - 
--------------------------------------------------------------------------------
[2022-09-13T01:12:06.172+0000] {taskinstance.py:1389} INFO - Executing <Task(BashOperator): start> on 2022-09-13 01:12:04.084973+00:00
[2022-09-13T01:12:06.179+0000] {standard_task_runner.py:52} INFO - Started process 37643 to run task
[2022-09-13T01:12:06.182+0000] {standard_task_runner.py:79} INFO - Running: ['***', 'tasks', 'run', 'Exercise3', 'start', 'manual__2022-09-13T01:12:04.084973+00:00', '--job-id', '65', '--raw', '--subdir', 'DAGS_FOLDER/exercise3.py', '--cfg-path', '/tmp/tmpjaokq_k5', '--error-file', '/tmp/tmpx5_9ncf_']
[2022-09-13T01:12:06.183+0000] {standard_task_runner.py:80} INFO - Job 65: Subtask start
[2022-09-13T01:12:06.267+0000] {task_command.py:371} INFO - Running <TaskInstance: Exercise3.start manual__2022-09-13T01:12:04.084973+00:00 [running]> on host cafb6e659d50
[2022-09-13T01:12:06.370+0000] {taskinstance.py:1583} INFO - Exporting the following env vars:
AIRFLOW_CTX_DAG_OWNER=***
AIRFLOW_CTX_DAG_ID=Exercise3
AIRFLOW_CTX_TASK_ID=start
AIRFLOW_CTX_EXECUTION_DATE=2022-09-13T01:12:04.084973+00:00
AIRFLOW_CTX_TRY_NUMBER=1
AIRFLOW_CTX_DAG_RUN_ID=manual__2022-09-13T01:12:04.084973+00:00
[2022-09-13T01:12:06.372+0000] {subprocess.py:62} INFO - Tmp dir root location: 
 /tmp
[2022-09-13T01:12:06.373+0000] {subprocess.py:74} INFO - Running command: ['/bin/bash', '-c', 'date']
[2022-09-13T01:12:06.389+0000] {subprocess.py:85} INFO - Output:
[2022-09-13T01:12:06.394+0000] {subprocess.py:92} INFO - Tue Sep 13 01:12:06 UTC 2022
[2022-09-13T01:12:06.394+0000] {subprocess.py:96} INFO - Command exited with return code 0
[2022-09-13T01:12:06.443+0000] {taskinstance.py:1412} INFO - Marking task as SUCCESS. dag_id=Exercise3, task_id=start, execution_date=20220913T011204, start_date=20220913T011206, end_date=20220913T011206
[2022-09-13T01:12:06.474+0000] {local_task_job.py:156} INFO - Task exited with return code 0
[2022-09-13T01:12:06.543+0000] {local_task_job.py:279} INFO - 1 downstream tasks scheduled from follow-on schedule check
