[2022-09-13T09:00:07.702+0000] {taskinstance.py:1171} INFO - Dependencies all met for <TaskInstance: Exercise1.end manual__2022-09-13T08:59:58.899820+00:00 [queued]>
[2022-09-13T09:00:07.720+0000] {taskinstance.py:1171} INFO - Dependencies all met for <TaskInstance: Exercise1.end manual__2022-09-13T08:59:58.899820+00:00 [queued]>
[2022-09-13T09:00:07.720+0000] {taskinstance.py:1368} INFO - 
--------------------------------------------------------------------------------
[2022-09-13T09:00:07.720+0000] {taskinstance.py:1369} INFO - Starting attempt 1 of 1
[2022-09-13T09:00:07.721+0000] {taskinstance.py:1370} INFO - 
--------------------------------------------------------------------------------
[2022-09-13T09:00:07.750+0000] {taskinstance.py:1389} INFO - Executing <Task(BashOperator): end> on 2022-09-13 08:59:58.899820+00:00
[2022-09-13T09:00:07.757+0000] {standard_task_runner.py:52} INFO - Started process 3175 to run task
[2022-09-13T09:00:07.763+0000] {standard_task_runner.py:79} INFO - Running: ['***', 'tasks', 'run', 'Exercise1', 'end', 'manual__2022-09-13T08:59:58.899820+00:00', '--job-id', '102', '--raw', '--subdir', 'DAGS_FOLDER/exercise1.py', '--cfg-path', '/tmp/tmp5u2y_hc8', '--error-file', '/tmp/tmpr3eqr7xz']
[2022-09-13T09:00:07.765+0000] {standard_task_runner.py:80} INFO - Job 102: Subtask end
[2022-09-13T09:00:07.891+0000] {task_command.py:371} INFO - Running <TaskInstance: Exercise1.end manual__2022-09-13T08:59:58.899820+00:00 [running]> on host cafb6e659d50
[2022-09-13T09:00:08.050+0000] {taskinstance.py:1583} INFO - Exporting the following env vars:
AIRFLOW_CTX_DAG_OWNER=***
AIRFLOW_CTX_DAG_ID=Exercise1
AIRFLOW_CTX_TASK_ID=end
AIRFLOW_CTX_EXECUTION_DATE=2022-09-13T08:59:58.899820+00:00
AIRFLOW_CTX_TRY_NUMBER=1
AIRFLOW_CTX_DAG_RUN_ID=manual__2022-09-13T08:59:58.899820+00:00
[2022-09-13T09:00:08.052+0000] {subprocess.py:62} INFO - Tmp dir root location: 
 /tmp
[2022-09-13T09:00:08.053+0000] {subprocess.py:74} INFO - Running command: ['/bin/bash', '-c', 'date']
[2022-09-13T09:00:08.077+0000] {subprocess.py:85} INFO - Output:
[2022-09-13T09:00:08.083+0000] {subprocess.py:92} INFO - Tue Sep 13 09:00:08 UTC 2022
[2022-09-13T09:00:08.084+0000] {subprocess.py:96} INFO - Command exited with return code 0
[2022-09-13T09:00:08.143+0000] {taskinstance.py:1412} INFO - Marking task as SUCCESS. dag_id=Exercise1, task_id=end, execution_date=20220913T085958, start_date=20220913T090007, end_date=20220913T090008
[2022-09-13T09:00:08.178+0000] {local_task_job.py:156} INFO - Task exited with return code 0
[2022-09-13T09:00:08.234+0000] {local_task_job.py:279} INFO - 0 downstream tasks scheduled from follow-on schedule check
