[2022-09-13T12:43:45.178+0000] {taskinstance.py:1171} INFO - Dependencies all met for <TaskInstance: Exercise5b.start manual__2022-09-13T12:43:43.943271+00:00 [queued]>
[2022-09-13T12:43:45.193+0000] {taskinstance.py:1171} INFO - Dependencies all met for <TaskInstance: Exercise5b.start manual__2022-09-13T12:43:43.943271+00:00 [queued]>
[2022-09-13T12:43:45.193+0000] {taskinstance.py:1368} INFO - 
--------------------------------------------------------------------------------
[2022-09-13T12:43:45.193+0000] {taskinstance.py:1369} INFO - Starting attempt 1 of 1
[2022-09-13T12:43:45.193+0000] {taskinstance.py:1370} INFO - 
--------------------------------------------------------------------------------
[2022-09-13T12:43:45.207+0000] {taskinstance.py:1389} INFO - Executing <Task(BashOperator): start> on 2022-09-13 12:43:43.943271+00:00
[2022-09-13T12:43:45.212+0000] {standard_task_runner.py:52} INFO - Started process 13584 to run task
[2022-09-13T12:43:45.215+0000] {standard_task_runner.py:79} INFO - Running: ['***', 'tasks', 'run', 'Exercise5b', 'start', 'manual__2022-09-13T12:43:43.943271+00:00', '--job-id', '182', '--raw', '--subdir', 'DAGS_FOLDER/exercise5b.py', '--cfg-path', '/tmp/tmpkonufu7c', '--error-file', '/tmp/tmpl08qkjlo']
[2022-09-13T12:43:45.215+0000] {standard_task_runner.py:80} INFO - Job 182: Subtask start
[2022-09-13T12:43:45.300+0000] {task_command.py:371} INFO - Running <TaskInstance: Exercise5b.start manual__2022-09-13T12:43:43.943271+00:00 [running]> on host cafb6e659d50
[2022-09-13T12:43:45.385+0000] {taskinstance.py:1583} INFO - Exporting the following env vars:
AIRFLOW_CTX_DAG_OWNER=***
AIRFLOW_CTX_DAG_ID=Exercise5b
AIRFLOW_CTX_TASK_ID=start
AIRFLOW_CTX_EXECUTION_DATE=2022-09-13T12:43:43.943271+00:00
AIRFLOW_CTX_TRY_NUMBER=1
AIRFLOW_CTX_DAG_RUN_ID=manual__2022-09-13T12:43:43.943271+00:00
[2022-09-13T12:43:45.386+0000] {subprocess.py:62} INFO - Tmp dir root location: 
 /tmp
[2022-09-13T12:43:45.386+0000] {subprocess.py:74} INFO - Running command: ['/bin/bash', '-c', 'date']
[2022-09-13T12:43:45.397+0000] {subprocess.py:85} INFO - Output:
[2022-09-13T12:43:45.401+0000] {subprocess.py:92} INFO - Tue Sep 13 12:43:45 UTC 2022
[2022-09-13T12:43:45.401+0000] {subprocess.py:96} INFO - Command exited with return code 0
[2022-09-13T12:43:45.435+0000] {taskinstance.py:1412} INFO - Marking task as SUCCESS. dag_id=Exercise5b, task_id=start, execution_date=20220913T124343, start_date=20220913T124345, end_date=20220913T124345
[2022-09-13T12:43:45.466+0000] {local_task_job.py:156} INFO - Task exited with return code 0
[2022-09-13T12:43:45.521+0000] {local_task_job.py:279} INFO - 1 downstream tasks scheduled from follow-on schedule check
