[2022-09-11T13:04:09.174+0000] {taskinstance.py:1171} INFO - Dependencies all met for <TaskInstance: ETL.ETL manual__2022-09-11T13:04:06.234978+00:00 [queued]>
[2022-09-11T13:04:09.186+0000] {taskinstance.py:1171} INFO - Dependencies all met for <TaskInstance: ETL.ETL manual__2022-09-11T13:04:06.234978+00:00 [queued]>
[2022-09-11T13:04:09.187+0000] {taskinstance.py:1368} INFO - 
--------------------------------------------------------------------------------
[2022-09-11T13:04:09.187+0000] {taskinstance.py:1369} INFO - Starting attempt 1 of 1
[2022-09-11T13:04:09.187+0000] {taskinstance.py:1370} INFO - 
--------------------------------------------------------------------------------
[2022-09-11T13:04:09.204+0000] {taskinstance.py:1389} INFO - Executing <Task(PythonOperator): ETL> on 2022-09-11 13:04:06.234978+00:00
[2022-09-11T13:04:09.210+0000] {standard_task_runner.py:52} INFO - Started process 7316 to run task
[2022-09-11T13:04:09.214+0000] {standard_task_runner.py:79} INFO - Running: ['***', 'tasks', 'run', 'ETL', 'ETL', 'manual__2022-09-11T13:04:06.234978+00:00', '--job-id', '86', '--raw', '--subdir', 'DAGS_FOLDER/etl.py', '--cfg-path', '/tmp/tmpv1c0j3hc', '--error-file', '/tmp/tmpz709jvwl']
[2022-09-11T13:04:09.215+0000] {standard_task_runner.py:80} INFO - Job 86: Subtask ETL
[2022-09-11T13:04:09.288+0000] {task_command.py:371} INFO - Running <TaskInstance: ETL.ETL manual__2022-09-11T13:04:06.234978+00:00 [running]> on host 9e79258d8c9a
[2022-09-11T13:04:09.374+0000] {taskinstance.py:1583} INFO - Exporting the following env vars:
AIRFLOW_CTX_DAG_OWNER=***
AIRFLOW_CTX_DAG_ID=ETL
AIRFLOW_CTX_TASK_ID=ETL
AIRFLOW_CTX_EXECUTION_DATE=2022-09-11T13:04:06.234978+00:00
AIRFLOW_CTX_TRY_NUMBER=1
AIRFLOW_CTX_DAG_RUN_ID=manual__2022-09-11T13:04:06.234978+00:00
[2022-09-11T13:04:09.384+0000] {taskinstance.py:1902} ERROR - Task failed with exception
Traceback (most recent call last):
  File "/home/airflow/.local/lib/python3.7/site-packages/airflow/operators/python.py", line 171, in execute
    return_value = self.execute_callable()
  File "/home/airflow/.local/lib/python3.7/site-packages/airflow/operators/python.py", line 189, in execute_callable
    return self.python_callable(*self.op_args, **self.op_kwargs)
  File "/opt/airflow/dags/etl.py", line 39, in my_func
    df=json_to_df(urlPath=urlPath)
  File "/opt/airflow/dags/etl.py", line 30, in json_to_df
    r= requests.get('urlPath')
  File "/home/airflow/.local/lib/python3.7/site-packages/requests/api.py", line 73, in get
    return request("get", url, params=params, **kwargs)
  File "/home/airflow/.local/lib/python3.7/site-packages/requests/api.py", line 59, in request
    return session.request(method=method, url=url, **kwargs)
  File "/home/airflow/.local/lib/python3.7/site-packages/requests/sessions.py", line 573, in request
    prep = self.prepare_request(req)
  File "/home/airflow/.local/lib/python3.7/site-packages/requests/sessions.py", line 496, in prepare_request
    hooks=merge_hooks(request.hooks, self.hooks),
  File "/home/airflow/.local/lib/python3.7/site-packages/requests/models.py", line 368, in prepare
    self.prepare_url(url, params)
  File "/home/airflow/.local/lib/python3.7/site-packages/requests/models.py", line 440, in prepare_url
    f"Invalid URL {url!r}: No scheme supplied. "
requests.exceptions.MissingSchema: Invalid URL 'urlPath': No scheme supplied. Perhaps you meant http://urlPath?
[2022-09-11T13:04:09.394+0000] {taskinstance.py:1412} INFO - Marking task as FAILED. dag_id=ETL, task_id=ETL, execution_date=20220911T130406, start_date=20220911T130409, end_date=20220911T130409
[2022-09-11T13:04:09.406+0000] {standard_task_runner.py:97} ERROR - Failed to execute job 86 for task ETL (Invalid URL 'urlPath': No scheme supplied. Perhaps you meant http://urlPath?; 7316)
[2022-09-11T13:04:09.425+0000] {local_task_job.py:156} INFO - Task exited with return code 1
[2022-09-11T13:04:09.462+0000] {local_task_job.py:279} INFO - 0 downstream tasks scheduled from follow-on schedule check
