[2022-09-13T11:40:43.106+0000] {taskinstance.py:1171} INFO - Dependencies all met for <TaskInstance: Exercise3.Creating_View manual__2022-09-13T11:40:40.798813+00:00 [queued]>
[2022-09-13T11:40:43.118+0000] {taskinstance.py:1171} INFO - Dependencies all met for <TaskInstance: Exercise3.Creating_View manual__2022-09-13T11:40:40.798813+00:00 [queued]>
[2022-09-13T11:40:43.119+0000] {taskinstance.py:1368} INFO - 
--------------------------------------------------------------------------------
[2022-09-13T11:40:43.119+0000] {taskinstance.py:1369} INFO - Starting attempt 1 of 1
[2022-09-13T11:40:43.119+0000] {taskinstance.py:1370} INFO - 
--------------------------------------------------------------------------------
[2022-09-13T11:40:43.137+0000] {taskinstance.py:1389} INFO - Executing <Task(PythonOperator): Creating_View> on 2022-09-13 11:40:40.798813+00:00
[2022-09-13T11:40:43.141+0000] {standard_task_runner.py:52} INFO - Started process 10527 to run task
[2022-09-13T11:40:43.145+0000] {standard_task_runner.py:79} INFO - Running: ['***', 'tasks', 'run', 'Exercise3', 'Creating_View', 'manual__2022-09-13T11:40:40.798813+00:00', '--job-id', '137', '--raw', '--subdir', 'DAGS_FOLDER/exercise3.py', '--cfg-path', '/tmp/tmpuqtmdv1r', '--error-file', '/tmp/tmp9xxten0b']
[2022-09-13T11:40:43.146+0000] {standard_task_runner.py:80} INFO - Job 137: Subtask Creating_View
[2022-09-13T11:40:43.227+0000] {task_command.py:371} INFO - Running <TaskInstance: Exercise3.Creating_View manual__2022-09-13T11:40:40.798813+00:00 [running]> on host cafb6e659d50
[2022-09-13T11:40:43.369+0000] {taskinstance.py:1583} INFO - Exporting the following env vars:
AIRFLOW_CTX_DAG_OWNER=***
AIRFLOW_CTX_DAG_ID=Exercise3
AIRFLOW_CTX_TASK_ID=Creating_View
AIRFLOW_CTX_EXECUTION_DATE=2022-09-13T11:40:40.798813+00:00
AIRFLOW_CTX_TRY_NUMBER=1
AIRFLOW_CTX_DAG_RUN_ID=manual__2022-09-13T11:40:40.798813+00:00
[2022-09-13T11:40:43.380+0000] {python.py:173} INFO - Done. Returned value was: None
[2022-09-13T11:40:43.407+0000] {taskinstance.py:1412} INFO - Marking task as SUCCESS. dag_id=Exercise3, task_id=Creating_View, execution_date=20220913T114040, start_date=20220913T114043, end_date=20220913T114043
[2022-09-13T11:40:43.442+0000] {local_task_job.py:156} INFO - Task exited with return code 0
[2022-09-13T11:40:43.541+0000] {local_task_job.py:279} INFO - 1 downstream tasks scheduled from follow-on schedule check
