[2022-09-13T12:34:29.716+0000] {taskinstance.py:1171} INFO - Dependencies all met for <TaskInstance: Exercise5.start manual__2022-09-13T12:34:28.028458+00:00 [queued]>
[2022-09-13T12:34:29.725+0000] {taskinstance.py:1171} INFO - Dependencies all met for <TaskInstance: Exercise5.start manual__2022-09-13T12:34:28.028458+00:00 [queued]>
[2022-09-13T12:34:29.725+0000] {taskinstance.py:1368} INFO - 
--------------------------------------------------------------------------------
[2022-09-13T12:34:29.725+0000] {taskinstance.py:1369} INFO - Starting attempt 1 of 1
[2022-09-13T12:34:29.725+0000] {taskinstance.py:1370} INFO - 
--------------------------------------------------------------------------------
[2022-09-13T12:34:29.738+0000] {taskinstance.py:1389} INFO - Executing <Task(BashOperator): start> on 2022-09-13 12:34:28.028458+00:00
[2022-09-13T12:34:29.744+0000] {standard_task_runner.py:52} INFO - Started process 13107 to run task
[2022-09-13T12:34:29.747+0000] {standard_task_runner.py:79} INFO - Running: ['***', 'tasks', 'run', 'Exercise5', 'start', 'manual__2022-09-13T12:34:28.028458+00:00', '--job-id', '168', '--raw', '--subdir', 'DAGS_FOLDER/exercise5.py', '--cfg-path', '/tmp/tmpdsbtv6b7', '--error-file', '/tmp/tmpdllc4ru9']
[2022-09-13T12:34:29.748+0000] {standard_task_runner.py:80} INFO - Job 168: Subtask start
[2022-09-13T12:34:29.814+0000] {task_command.py:371} INFO - Running <TaskInstance: Exercise5.start manual__2022-09-13T12:34:28.028458+00:00 [running]> on host cafb6e659d50
[2022-09-13T12:34:29.888+0000] {taskinstance.py:1583} INFO - Exporting the following env vars:
AIRFLOW_CTX_DAG_OWNER=***
AIRFLOW_CTX_DAG_ID=Exercise5
AIRFLOW_CTX_TASK_ID=start
AIRFLOW_CTX_EXECUTION_DATE=2022-09-13T12:34:28.028458+00:00
AIRFLOW_CTX_TRY_NUMBER=1
AIRFLOW_CTX_DAG_RUN_ID=manual__2022-09-13T12:34:28.028458+00:00
[2022-09-13T12:34:29.889+0000] {subprocess.py:62} INFO - Tmp dir root location: 
 /tmp
[2022-09-13T12:34:29.890+0000] {subprocess.py:74} INFO - Running command: ['/bin/bash', '-c', 'date']
[2022-09-13T12:34:29.903+0000] {subprocess.py:85} INFO - Output:
[2022-09-13T12:34:29.906+0000] {subprocess.py:92} INFO - Tue Sep 13 12:34:29 UTC 2022
[2022-09-13T12:34:29.907+0000] {subprocess.py:96} INFO - Command exited with return code 0
[2022-09-13T12:34:29.940+0000] {taskinstance.py:1412} INFO - Marking task as SUCCESS. dag_id=Exercise5, task_id=start, execution_date=20220913T123428, start_date=20220913T123429, end_date=20220913T123429
[2022-09-13T12:34:29.999+0000] {local_task_job.py:156} INFO - Task exited with return code 0
[2022-09-13T12:34:30.090+0000] {local_task_job.py:279} INFO - 1 downstream tasks scheduled from follow-on schedule check
